<svg id="Слой_1" data-name="Слой 1" xmlns="http://www.w3.org/2000/svg" xmlns:xlink="http://www.w3.org/1999/xlink"
     viewBox="0 0 530 530">
    <defs>
        <style>
            .cls-1,.cls-2{fill:none;}.cls-2{clip-rule:evenodd;}.cls-3{clip-path:url(#clip-path);}.cls-4{clip-path:url(#clip-path-2);}.cls-5{isolation:isolate;}.cls-6{clip-path:url(#clip-path-3);}.cls-7{clip-path:url(#clip-path-4);}.cls-8{fill:#e8f1fa;opacity:0;}.cls-9{clip-path:url(#clip-path-5);}.cls-10{fill:#6a4f9b;}
        </style>
        <clipPath id="clip-path">
            <circle class="cls-1" cx="265" cy="265" r="265"/>
        </clipPath>
        <clipPath id="clip-path-2">
            <rect class="cls-1" y="0.02" width="530" height="530"/>
        </clipPath>
        <clipPath id="clip-path-3">
            <rect class="cls-1" x="-5" y="-6.98" width="548" height="542"/>
        </clipPath>
        <clipPath id="clip-path-4">
            <rect class="cls-1" x="265" y="0.02" width="265" height="500"/>
        </clipPath>
        <clipPath id="clip-path-5">
            <polygon class="cls-2" points="265 -6.98 265 265.02 406.37 535 542 535 542 -5 265 -6.98"/>
        </clipPath>
    </defs>
    <title>grap_1</title>
    <g class="cls-3">
        <g class="cls-4">
            <g class="cls-5">
                <g class="cls-6">
                    <g class="cls-7">
                        <rect class="cls-8" x="-5" y="-5" width="540" height="540"/>
                    </g>
                    <g class="cls-9">
                        <g class="cls-7">
                            <rect class="cls-10" x="260" y="-11.98" width="287" height="551.98"/>
                        </g>
                    </g>
                </g>
            </g>
        </g>
    </g>
</svg>
