<svg xmlns="http://www.w3.org/2000/svg" width="29" height="39" viewBox="0 0 29 39">
    <path fill="#6a4f9b" d="M14.5 0C6.505 0 0 6.336 0 14.124 0 23.79 12.976 37.98 13.529 38.578c.518.563 1.424.562 1.942 0C16.024 37.978 29 23.79 29 14.124 29 6.336 22.495 0 14.5 0zm0 21.23c-4.023 0-7.295-3.187-7.295-7.106 0-3.918 3.272-7.106 7.295-7.106s7.295 3.188 7.295 7.106c0 3.919-3.272 7.107-7.295 7.107z"/>
</svg>
