<?xml version="1.0" encoding="UTF-8"?>
<svg width="200px" height="120px" viewBox="0 0 200 120" version="1.1" xmlns="http://www.w3.org/2000/svg" xmlns:xlink="http://www.w3.org/1999/xlink">
    <!-- Generator: Sketch 63.1 (92452) - https://sketch.com -->
    <title>catalog-3</title>
    <desc>Created with Sketch.</desc>
    <g id="catalog-3" stroke="none" stroke-width="1" fill="none" fill-rule="evenodd">
        <g id="shef_tech_icons_2_E" transform="translate(14.000000, 2.000000)">
            <g id="Слой_4" transform="translate(2.000000, 0.000000)" fill-rule="nonzero">
                <path d="M84,47 C64.7,47 49,62.7 49,82 C49,101.3 64.7,117 84,117 C103.3,117 119,101.3 119,82 C119,62.7 103.3,47 84,47 Z" id="Path" fill="#6a4f9b"></path>
                <path d="M22.5,67.6 L0.5,46.9 L13,46.9 C13.6,46.9 14,46.5 14,45.9 L14,0.3 L30.9,0.3 C30.9,0.3 31,0.3 31,0.3 L31,46 C31,46.6 31.4,47 32,47 L44.4,47 L22.5,67.6 Z" id="Path" fill="#FFFFFF"></path>
                <path d="M146.5,67.6 L124.6,46.9 L137,46.9 C137.6,46.9 138,46.5 138,45.9 L138,0.1 L155,0.1 L155,45.9 C155,46.5 155.4,46.9 156,46.9 L168.4,46.9 L146.5,67.6 Z" id="Path" fill="#FFFFFF"></path>
                <path d="M83.5,37.6 L61.5,16.9 L74,16.9 C74.6,16.9 75,16.5 75,15.9 L75,0.1 L91.9,0.1 C91.9,0.1 92,0.1 92,0.1 L92,15.9 C92,16.5 92.4,16.9 93,16.9 L105.4,16.9 L83.5,37.6 Z" id="Path" fill="#FFFFFF"></path>
                <path d="M74,99 L94,99 L94,96 L80,96 C79.4,96 79,95.6 79,95 L79,85 C79,84.4 79.4,84 80,84 L94,84 L94,81 L80,81 C79.4,81 79,80.6 79,80 L79,71 C79,70.4 79.4,70 80,70 L94,70 L94,67 L74,67 L74,99 Z" id="Path" fill="#FFFFFF"></path>
            </g>
            <g id="Слой_3" stroke="#000000" stroke-linecap="round" stroke-linejoin="round" stroke-width="2">
                <g id="Group">
                    <circle id="Oval" cx="86" cy="82" r="36"></circle>
                    <polyline id="Path" points="15 0 15 45.9 0 45.9 24.5 69 48.9 45.9 34 45.9 34 0"></polyline>
                    <polyline id="Path" points="139 0 139 45.9 124 45.9 148.5 69 172.9 45.9 158 45.9 158 0"></polyline>
                    <polyline id="Path" points="76 0 76 15.9 61 15.9 85.5 39 109.9 15.9 95 15.9 95 0"></polyline>
                    <polygon id="Path" points="97 71 97 66 80 66 76 66 75 66 75 100 76 100 80 100 97 100 97 95 82 95 82 85 97 85 97 80 82 80 82 71"></polygon>
                    <line x1="21" y1="88" x2="29" y2="88" id="Path"></line>
                    <line x1="27" y1="105" x2="34" y2="102" id="Path"></line>
                    <line x1="38" y1="118" x2="44" y2="112" id="Path"></line>
                    <line x1="149" y1="88" x2="141" y2="88" id="Path"></line>
                    <line x1="143" y1="105" x2="136" y2="102" id="Path"></line>
                    <line x1="132" y1="118" x2="126" y2="112" id="Path"></line>
                </g>
            </g>
        </g>
    </g>
</svg>
