<?xml version="1.0" encoding="UTF-8"?>
<svg width="200px" height="120px" viewBox="0 0 200 120" version="1.1" xmlns="http://www.w3.org/2000/svg" xmlns:xlink="http://www.w3.org/1999/xlink">
    <!-- Generator: Sketch 63.1 (92452) - https://sketch.com -->
    <title>about-2</title>
    <desc>Created with Sketch.</desc>
    <g id="about-2" stroke="none" stroke-width="1" fill="none" fill-rule="evenodd">
        <g id="shef_tech_icons_2_samorazvitie" transform="translate(24.000000, 15.000000)">
            <g id="Слой_4" transform="translate(0.000000, 0.769231)" fill-rule="nonzero">
                <path d="M66.9414141,6.46153846 C67.2484848,6.46153846 67.4787879,6.30769231 67.6323232,6 C67.7090909,5.92307692 67.7090909,5.84615385 67.7090909,5.69230769 C67.7858586,5.53846154 67.7858586,5.38461538 67.8626263,5.30769231 C68.169697,4.69230769 68.5535354,4.23076923 68.9373737,3.76923077 C69.1676768,3.53846154 69.4747475,3.23076923 69.6282828,3.07692308 C74.0040404,-0.846153846 82.2181818,0.153846154 88.2060606,5.53846154 C93.7333333,10.4615385 96.0363636,17.5384615 93.6565657,22.4615385 C91.6606061,23.1538462 89.5878788,23.5384615 87.5151515,23.5384615 C80.2222222,23.5384615 73.7737374,19.2307692 70.9333333,12.4615385 C70.779798,12.1538462 70.5494949,12 70.2424242,12 C70.1656566,12 70.1656566,12 70.0888889,12 C69.7050505,12.0769231 69.4747475,12.3846154 69.4747475,12.7692308 C69.4747475,14.6923077 68.9373737,16.6153846 67.9393939,18.2307692 C67.9393939,18.2307692 67.9393939,18.2307692 67.9393939,18.2307692 C67.9393939,18.2307692 67.9393939,18.2307692 67.9393939,18.2307692 C66.020202,21.4615385 62.5656566,23.4615385 58.8040404,23.4615385 L58.8040404,23.4615385 C58.5737374,23.4615385 58.2666667,23.4615385 58.0363636,23.4615385 C57.1151515,21.7692308 56.6545455,19.7692308 56.6545455,17.8461538 C56.7313131,11.7692308 61.1838384,6.76923077 66.9414141,6.46153846 Z" id="Path" fill="#FFFFFF"></path>
                <path d="M54.8888889,25.0769231 L59.9555556,25.0769231 C60.1090909,25.0769231 60.1858586,25.0769231 60.2626263,25 C64.0242424,24.5384615 67.3252525,22.3846154 69.3212121,19.0769231 C69.3212121,19.0769231 69.3212121,19.0769231 69.3212121,19.0769231 C69.3212121,19.0769231 69.3212121,19.0769231 69.3212121,19.0769231 C70.0121212,17.9230769 70.4727273,16.7692308 70.779798,15.4615385 C74.2343434,21.3846154 80.6060606,25.0769231 87.5919192,25.0769231 C88.4363636,25.0769231 89.2040404,25 89.9717172,24.9230769 C90.1252525,25 90.2787879,25.0769231 90.4323232,25.0769231 L95.4989899,25.0769231 C97.0343434,25.0769231 98.3393939,26.3846154 98.3393939,27.9230769 C98.3393939,29.4615385 97.0343434,30.7692308 95.4989899,30.7692308 L92.3515152,30.7692308 C92.0444444,30.7692308 91.7373737,31 91.6606061,31.3076923 C91.430303,31.9230769 91.2,32.5384615 90.8929293,33.0769231 L83.6767677,33.0769231 C80.3757576,33.0769231 77.5353535,35 76.1535354,37.6923077 C76,37.3076923 75.8464646,36.9230769 75.6929293,36.5384615 C75.6929293,36.5384615 75.6929293,36.5384615 75.6929293,36.5384615 C74.6949495,33.6153846 72.9292929,31.0769231 70.4727273,29.2307692 C68.0929293,27.3076923 65.0222222,26.2307692 61.7212121,26 L53.7373737,25.3846154 C54.1212121,25.2307692 54.5050505,25.0769231 54.8888889,25.0769231 Z" id="Path" fill="#FFFFFF"></path>
                <path d="M22.4161616,24.6923077 L61.6444444,27.4615385 C64.5616162,27.6923077 67.1717172,28.6153846 69.2444444,30.1538462 C67.7858586,29.5384615 66.1737374,29.1538462 64.4848485,29.1538462 L22.2626263,29.1538462 L22.4161616,24.6923077 Z" id="Path" fill="#FFFFFF"></path>
                <path d="M19.1919192,38.4615385 L59.1111111,38.4615385 C59.5717172,38.4615385 59.8787879,38.1538462 59.8787879,37.6923077 C59.8787879,37.2307692 59.5717172,36.9230769 59.1111111,36.9230769 L19.1919192,36.9230769 L19.1919192,34.6153846 L59.1111111,34.6153846 C59.5717172,34.6153846 59.8787879,34.3076923 59.8787879,33.8461538 C59.8787879,33.3846154 59.5717172,33.0769231 59.1111111,33.0769231 L19.1919192,33.0769231 L19.1919192,30.7692308 L64.4848485,30.7692308 C70.3959596,30.7692308 75.2323232,35.6153846 75.2323232,41.5384615 C75.2323232,42 75.5393939,42.3076923 76,42.3076923 C76.4606061,42.3076923 76.7676768,42 76.7676768,41.5384615 C76.7676768,37.6923077 79.8383838,34.6153846 83.6767677,34.6153846 L132.808081,34.6153846 L132.808081,36.9230769 L93.6565657,36.9230769 C93.1959596,36.9230769 92.8888889,37.2307692 92.8888889,37.6923077 C92.8888889,38.1538462 93.1959596,38.4615385 93.6565657,38.4615385 L132.808081,38.4615385 L132.808081,40.7692308 L82.9090909,40.7692308 C82.4484848,40.7692308 82.1414141,41.0769231 82.1414141,41.5384615 C82.1414141,42.8461538 81.1434343,43.8461538 79.8383838,43.8461538 L72.1616162,43.8461538 C70.8565657,43.8461538 69.8585859,42.8461538 69.8585859,41.5384615 C69.8585859,41.0769231 69.5515152,40.7692308 69.0909091,40.7692308 L19.1919192,40.7692308 L19.1919192,38.4615385 Z" id="Path" fill="#FFFFFF"></path>
                <path d="M82.2181818,88.6923077 L69.7818182,88.6923077 C69.7818182,88.6153846 69.8585859,88.5384615 69.8585859,88.4615385 L69.8585859,44.6153846 C70.4727273,45.0769231 71.3171717,45.3846154 72.1616162,45.3846154 L79.8383838,45.3846154 C80.6828283,45.3846154 81.5272727,45.0769231 82.1414141,44.6153846 L82.1414141,88.4615385 C82.1414141,88.5384615 82.1414141,88.6153846 82.2181818,88.6923077 Z" id="Path" fill="#6a4f9b"></path>
                <path d="M0.383838384,88.4615385 L0.383838384,59.2307692 L1.53535354,59.2307692 C4.91313131,59.2307692 7.67676768,56.4615385 7.67676768,53.0769231 L7.67676768,43.0769231 C11.5151515,43.4615385 14.5858586,46.7692308 14.5858586,50.7692308 L14.5858586,57.6923077 L12.2828283,57.6923077 C11.8222222,57.6923077 11.5151515,58 11.5151515,58.4615385 C11.5151515,58.9230769 11.8222222,59.2307692 12.2828283,59.2307692 L34.5454545,59.2307692 C36.2343434,59.2307692 37.6161616,60.6153846 37.6161616,62.3076923 C37.6161616,64 36.2343434,65.3846154 34.5454545,65.3846154 L15.3535354,65.3846154 C14.8929293,65.3846154 14.5858586,65.6923077 14.5858586,66.1538462 C14.5858586,66.6153846 14.8929293,66.9230769 15.3535354,66.9230769 L34.5454545,66.9230769 C36.2343434,66.9230769 37.6161616,68.3076923 37.6161616,70 C37.6161616,71.6923077 36.2343434,73.0769231 34.5454545,73.0769231 L15.3535354,73.0769231 C14.8929293,73.0769231 14.5858586,73.3846154 14.5858586,73.8461538 C14.5858586,74.3076923 14.8929293,74.6153846 15.3535354,74.6153846 L34.5454545,74.6153846 C36.2343434,74.6153846 37.6161616,76 37.6161616,77.6923077 C37.6161616,79.3846154 36.2343434,80.7692308 34.5454545,80.7692308 L15.3535354,80.7692308 C14.8929293,80.7692308 14.5858586,81.0769231 14.5858586,81.5384615 C14.5858586,82 14.8929293,82.3076923 15.3535354,82.3076923 L34.5454545,82.3076923 C36.2343434,82.3076923 37.6161616,83.6923077 37.6161616,85.3846154 C37.6161616,87.0769231 36.2343434,88.4615385 34.5454545,88.4615385 L0.383838384,88.4615385 Z" id="Path" fill="#FFFFFF"></path>
                <path d="M37.769697,88.6923077 C38.6141414,87.8461538 39.1515152,86.6923077 39.1515152,85.3846154 C39.1515152,83.7692308 38.3070707,82.3846154 37.0787879,81.5384615 C38.3070707,80.6923077 39.1515152,79.3076923 39.1515152,77.6923077 C39.1515152,76.0769231 38.3070707,74.6923077 37.0787879,73.8461538 C38.3070707,73 39.1515152,71.6153846 39.1515152,70 C39.1515152,68.3846154 38.3070707,67 37.0787879,66.1538462 C38.3070707,65.3076923 39.1515152,63.9230769 39.1515152,62.3076923 C39.1515152,59.7692308 37.0787879,57.6923077 34.5454545,57.6923077 L16.1212121,57.6923077 L16.1212121,42.3076923 L68.3232323,42.3076923 L68.3232323,88.4615385 C68.3232323,88.5384615 68.3232323,88.6153846 68.4,88.6923077 L37.769697,88.6923077 Z" id="Path" fill="#6a4f9b"></path>
                <path d="M83.6,88.6923077 C83.6,88.6153846 83.6767677,88.5384615 83.6767677,88.4615385 L83.6767677,42.3076923 L135.878788,42.3076923 L135.878788,57.6923077 L117.454545,57.6923077 C114.921212,57.6923077 112.848485,59.7692308 112.848485,62.3076923 C112.848485,63.9230769 113.692929,65.3076923 114.921212,66.1538462 C113.692929,67 112.848485,68.3846154 112.848485,70 C112.848485,71.6153846 113.692929,73 114.921212,73.8461538 C113.692929,74.6923077 112.848485,76.0769231 112.848485,77.6923077 C112.848485,79.3076923 113.692929,80.6923077 114.921212,81.5384615 C113.692929,82.3846154 112.848485,83.7692308 112.848485,85.3846154 C112.848485,86.6923077 113.385859,87.8461538 114.230303,88.6923077 L83.6,88.6923077 Z" id="Path" fill="#6a4f9b"></path>
                <path d="M152,88.4615385 C152,88.4615385 152,88.4615385 152,88.4615385 L117.454545,88.4615385 C115.765657,88.4615385 114.383838,87.0769231 114.383838,85.3846154 C114.383838,83.6923077 115.765657,82.3076923 117.454545,82.3076923 L136.646465,82.3076923 C137.107071,82.3076923 137.414141,82 137.414141,81.5384615 C137.414141,81.0769231 137.107071,80.7692308 136.646465,80.7692308 L117.454545,80.7692308 C115.765657,80.7692308 114.383838,79.3846154 114.383838,77.6923077 C114.383838,76 115.765657,74.6153846 117.454545,74.6153846 L136.646465,74.6153846 C137.107071,74.6153846 137.414141,74.3076923 137.414141,73.8461538 C137.414141,73.3846154 137.107071,73.0769231 136.646465,73.0769231 L117.454545,73.0769231 C115.765657,73.0769231 114.383838,71.6923077 114.383838,70 C114.383838,68.3076923 115.765657,66.9230769 117.454545,66.9230769 L136.646465,66.9230769 C137.107071,66.9230769 137.414141,66.6153846 137.414141,66.1538462 C137.414141,65.6923077 137.107071,65.3846154 136.646465,65.3846154 L117.454545,65.3846154 C115.765657,65.3846154 114.383838,64 114.383838,62.3076923 C114.383838,60.6153846 115.765657,59.2307692 117.454545,59.2307692 L139.717172,59.2307692 C140.177778,59.2307692 140.484848,58.9230769 140.484848,58.4615385 C140.484848,58 140.177778,57.6923077 139.717172,57.6923077 L137.414141,57.6923077 L137.414141,50.7692308 C137.414141,46.7692308 140.484848,43.5384615 144.323232,43.0769231 L144.323232,53.0769231 C144.323232,56.4615385 147.086869,59.2307692 150.464646,59.2307692 L152,59.2307692 C152,59.2307692 152,59.2307692 152,59.2307692 L152,88.4615385 Z" id="Path" fill="#FFFFFF"></path>
                <path d="M76.7676768,31.6153846 C78.7636364,31.6153846 80.3757576,30 80.3757576,28 C80.3757576,27.5384615 80.0686869,27.2307692 79.6080808,27.2307692 C79.1474747,27.2307692 78.840404,27.5384615 78.840404,28 C78.840404,29.1538462 77.9191919,30.0769231 76.7676768,30.0769231 C75.6161616,30.0769231 74.6949495,29.1538462 74.6949495,28 C74.6949495,27.5384615 74.3878788,27.2307692 73.9272727,27.2307692 C73.4666667,27.2307692 73.159596,27.5384615 73.159596,28 C73.159596,29.9230769 74.7717172,31.6153846 76.7676768,31.6153846 Z" id="Path" fill="#FFFFFF"></path>
                <ellipse id="Oval" fill="#FFFFFF" cx="72.1616162" cy="26.1538462" rx="1" ry="1"></ellipse>
                <ellipse id="Oval" fill="#FFFFFF" cx="81.3737374" cy="26.1538462" rx="1" ry="1"></ellipse>
            </g>
            <g id="Слой_3">
                <g id="Group" stroke="#000000" stroke-linecap="round" stroke-linejoin="round" stroke-width="2">
                    <path d="M12.2828283,59.2307692 L34.5454545,59.2307692 C36.6949495,59.2307692 38.3838384,60.9230769 38.3838384,63.0769231 L38.3838384,63.0769231 C38.3838384,65.2307692 36.6949495,66.9230769 34.5454545,66.9230769 L15.3535354,66.9230769" id="Path"></path>
                    <path d="M0,59.2307692 L1.53535354,59.2307692 C4.52929293,59.2307692 6.90909091,56.8461538 6.90909091,53.8461538 L6.90909091,43.0769231 L6.90909091,43.0769231 C11.5919192,43.0769231 15.3535354,46.8461538 15.3535354,51.5384615 L15.3535354,59.2307692" id="Path"></path>
                    <path d="M15.3535354,66.9230769 L34.5454545,66.9230769 C36.6949495,66.9230769 38.3838384,68.6153846 38.3838384,70.7692308 L38.3838384,70.7692308 C38.3838384,72.9230769 36.6949495,74.6153846 34.5454545,74.6153846 L15.3535354,74.6153846" id="Path"></path>
                    <path d="M15.3535354,74.6153846 L34.5454545,74.6153846 C36.6949495,74.6153846 38.3838384,76.3076923 38.3838384,78.4615385 L38.3838384,78.4615385 C38.3838384,80.6153846 36.6949495,82.3076923 34.5454545,82.3076923 L15.3535354,82.3076923" id="Path"></path>
                    <path d="M15.3535354,82.3076923 L34.5454545,82.3076923 C36.6949495,82.3076923 38.3838384,84 38.3838384,86.1538462 L38.3838384,86.1538462 C38.3838384,88.3076923 36.6949495,90 34.5454545,90 L0,90" id="Path"></path>
                    <path d="M15.3535354,59.2307692 L15.3535354,42.3076923 L69.0909091,42.3076923 L69.0909091,42.3076923 C69.0909091,44 70.4727273,45.3846154 72.1616162,45.3846154 L76,45.3846154" id="Path"></path>
                    <path d="M18.4242424,41.5384615 L18.4242424,30.7692308 L64.4848485,30.7692308 C70.8565657,30.7692308 76,35.9230769 76,42.3076923 L76,42.3076923" id="Path"></path>
                    <line x1="69.0909091" y1="43.0769231" x2="69.0909091" y2="89.2307692" id="Path"></line>
                    <path d="M139.717172,59.2307692 L117.454545,59.2307692 C115.305051,59.2307692 113.616162,60.9230769 113.616162,63.0769231 L113.616162,63.0769231 C113.616162,65.2307692 115.305051,66.9230769 117.454545,66.9230769 L136.646465,66.9230769" id="Path"></path>
                    <path d="M152,59.2307692 L150.464646,59.2307692 C147.470707,59.2307692 145.090909,56.8461538 145.090909,53.8461538 L145.090909,43.0769231 L145.090909,43.0769231 C140.408081,43.0769231 136.646465,46.8461538 136.646465,51.5384615 L136.646465,59.2307692" id="Path"></path>
                    <path d="M136.646465,66.9230769 L117.454545,66.9230769 C115.305051,66.9230769 113.616162,68.6153846 113.616162,70.7692308 L113.616162,70.7692308 C113.616162,72.9230769 115.305051,74.6153846 117.454545,74.6153846 L136.646465,74.6153846" id="Path"></path>
                    <path d="M136.646465,74.6153846 L117.454545,74.6153846 C115.305051,74.6153846 113.616162,76.3076923 113.616162,78.4615385 L113.616162,78.4615385 C113.616162,80.6153846 115.305051,82.3076923 117.454545,82.3076923 L136.646465,82.3076923" id="Path"></path>
                    <path d="M136.646465,82.3076923 L117.454545,82.3076923 C115.305051,82.3076923 113.616162,84 113.616162,86.1538462 L113.616162,86.1538462 C113.616162,88.3076923 115.305051,90 117.454545,90 L152,90" id="Path"></path>
                    <path d="M136.646465,59.2307692 L136.646465,42.3076923 L82.9090909,42.3076923 L82.9090909,42.3076923 C82.9090909,44 81.5272727,45.3846154 79.8383838,45.3846154 L76,45.3846154" id="Path"></path>
                    <path d="M133.575758,41.5384615 L133.575758,34.6153846 L83.6767677,34.6153846 C79.4545455,34.6153846 76,38.0769231 76,42.3076923 L76,42.3076923" id="Path"></path>
                    <line x1="82.9090909" y1="43.0769231" x2="82.9090909" y2="89.2307692" id="Path"></line>
                    <path d="M91.430303,34.4615385 C91.8141414,33.7692308 92.1212121,33.0769231 92.3515152,32.3076923 L95.4989899,32.3076923 C97.4949495,32.3076923 99.1070707,30.6923077 99.1070707,28.6923077 C99.1070707,26.6923077 97.4949495,25.0769231 95.4989899,25.0769231 L90.4323232,25.0769231" id="Path"></path>
                    <path d="M51.8949495,26.7692308 C52.5090909,25.7692308 53.6606061,25.0769231 54.8888889,25.0769231 L59.9555556,25.0769231" id="Path"></path>
                    <path d="M68.7070707,19.4615385 C69.7050505,17.7692308 70.3191919,15.7692308 70.3191919,13.6153846 C73.159596,20.3846154 79.8383838,25.1538462 87.5919192,25.1538462 C89.9717172,25.1538462 92.1979798,24.6923077 94.2707071,23.9230769 C96.9575758,18.6923077 94.8080808,11.0769231 88.7434343,5.76923077 C82.3717172,1.11022302e-16 73.8505051,-0.923076923 69.1676768,3.30769231 C68.9373737,3.53846154 68.630303,3.76923077 68.4,4.07692308 C67.9393939,4.61538462 67.5555556,5.15384615 67.2484848,5.76923077 C67.0949495,6 67.0181818,6.30769231 66.9414141,6.53846154 C66.9414141,6.53846154 66.9414141,6.53846154 66.9414141,6.53846154 C60.8767677,6.84615385 55.9636364,12.1538462 55.9636364,18.6923077 C55.9636364,21 56.5777778,23.2307692 57.6525253,25.0769231 C58.0363636,25.1538462 58.420202,25.1538462 58.8040404,25.1538462 C63.0262626,25.0769231 66.6343434,22.8461538 68.7070707,19.4615385" id="Path"></path>
                    <path d="M79.6848485,28.6923077 L79.6848485,28.6923077 C79.6848485,30.3076923 78.379798,31.5384615 76.8444444,31.5384615 L76.8444444,31.5384615 C75.2323232,31.5384615 74.0040404,30.2307692 74.0040404,28.6923077 L74.0040404,28.6923077" id="Path"></path>
                    <path d="M21.4949495,30.7692308 L21.7252525,24.6153846 L61.7212121,27.4615385 C64.7151515,27.6923077 67.7090909,28.6923077 70.0888889,30.5384615 C72.3919192,32.3076923 74.0808081,34.7692308 75.0787879,37.5384615" id="Path"></path>
                    <line x1="19.1919192" y1="34.6153846" x2="59.1111111" y2="34.6153846" id="Path"></line>
                    <line x1="93.6565657" y1="38.4615385" x2="133.575758" y2="38.4615385" id="Path"></line>
                    <line x1="19.1919192" y1="38.4615385" x2="59.1111111" y2="38.4615385" id="Path"></line>
                </g>
                <g id="Group" transform="translate(71.393939, 26.153846)" fill="#000000" fill-rule="nonzero">
                    <ellipse id="Oval" cx="0.767676768" cy="0.769230769" rx="1" ry="1"></ellipse>
                    <ellipse id="Oval" cx="9.97979798" cy="0.769230769" rx="1" ry="1"></ellipse>
                </g>
            </g>
        </g>
    </g>
</svg>
