<?xml version="1.0" encoding="UTF-8"?>
<svg width="60px" height="60px" viewBox="0 0 60 60" version="1.1" xmlns="http://www.w3.org/2000/svg" xmlns:xlink="http://www.w3.org/1999/xlink">
    <!-- Generator: Sketch 63.1 (92452) - https://sketch.com -->
    <title>graph-7</title>
    <desc>Created with Sketch.</desc>
    <g id="graph-7" stroke="none" stroke-width="1" fill="none" fill-rule="evenodd" stroke-linecap="round" stroke-linejoin="round">
        <g id="shef_tech_icons_2_38" transform="translate(4.000000, 4.000000)" stroke="#000000" stroke-width="2">
            <g id="Group">
                <circle id="Oval" cx="16" cy="16" r="16"></circle>
                <path d="M16,0 L22,0 C30.8,0 38,7.2 38,16 C38,24.8 30.8,32 22,32 L18.2,32" id="Path"></path>
                <line x1="5" y1="16" x2="15.9" y2="5.1" id="Path"></line>
                <line x1="9.5" y1="22.5" x2="22.5" y2="9.5" id="Path"></line>
                <line x1="16" y1="27" x2="27" y2="16" id="Path"></line>
            </g>
            <g id="Group" transform="translate(14.000000, 20.000000)">
                <path d="M23.4,1.8 C28.5,4.5 32,9.8 32,16 C32,24.8 24.8,32 16,32 C7.2,32 0,24.8 0,16 C0,14.6 0.2,13.3 0.5,12" id="Path"></path>
                <path d="M24,0.1 C31.9,1.1 38,7.8 38,16 C38,24.8 30.8,32 22,32 L18.2,32" id="Path"></path>
                <line x1="5" y1="16" x2="9.1" y2="11.9" id="Path"></line>
                <line x1="9.5" y1="22.5" x2="22.5" y2="9.5" id="Path"></line>
                <line x1="16" y1="27" x2="27" y2="16" id="Path"></line>
            </g>
        </g>
    </g>
</svg>