<?xml version="1.0" encoding="UTF-8"?>
<svg width="60px" height="60px" viewBox="0 0 60 60" version="1.1" xmlns="http://www.w3.org/2000/svg" xmlns:xlink="http://www.w3.org/1999/xlink">
    <!-- Generator: Sketch 63.1 (92452) - https://sketch.com -->
    <title>sentence-3</title>
    <desc>Created with Sketch.</desc>
    <g id="sentence-3" stroke="none" stroke-width="1" fill="none" fill-rule="evenodd">
        <g id="shef_tech_icons_2_stabil'nost'_kachestva" transform="translate(4.000000, 1.000000)">
            <g id="Слой_4" transform="translate(1.000000, 1.000000)" fill-rule="nonzero">
                <path d="M22,18 C21.4,18 21,18.4 21,19 C21,19.6 20.6,20 20,20 C19.4,20 19,19.6 19,19 C19,18.4 18.6,18 18,18 C17.4,18 17,18.4 17,19 C17,20.7 18.3,22 20,22 C21.7,22 23,20.7 23,19 C23,18.5 22.6,18 22,18 Z" id="Path" fill="#FFFFFF"></path>
                <path d="M21.5,33 C20.7,33 20,33.7 20,34.5 C20,35.3 20.7,36 21.5,36 C22.3,36 23,35.3 23,34.5 C23,33.7 22.3,33 21.5,33 Z M21.5,35 C21.2,35 21,34.8 21,34.5 C21,34.2 21.2,34 21.5,34 C21.8,34 22,34.2 22,34.5 C22,34.8 21.8,35 21.5,35 Z" id="Shape" fill="#FFFFFF"></path>
                <path d="M36.7,0.2 C36.8,0.1 36.9,0 37,0 C37.1,0 37.2,0.1 37.2,0.2 L38.5,7.9 C38.6,8.4 38.4,9 38.1,9.4 C37.4,10.3 35.9,10.2 35.2,9.3 C34.8,8.8 34.7,8.3 34.9,7.7 L36.7,0.2 Z" id="Path" fill="#FFFFFF"></path>
                <path d="M11.5,7.9 L12.8,0.2 C12.8,0 13.2,0 13.2,0.2 L15.1,7.7 C15.2,8.3 15.1,8.8 14.8,9.3 C14.1,10.2 12.7,10.2 11.9,9.4 C11.6,8.9 11.4,8.4 11.5,7.9 Z" id="Path" fill="#FFFFFF"></path>
                <circle id="Oval" fill="#FFFFFF" cx="25" cy="50" r="6"></circle>
                <path d="M31.3,45.1 C29.9,43.2 27.6,42 25,42 C22.7,42 20.6,43 19.1,44.6 L7.3,20 C7.5,20 7.8,20 8,20 L9.4,20 L16.8,32 C15.9,33.9 16,36 17,37.8 C18.1,39.8 20.2,41 22.4,41 L25,41 L27.6,41 C29.9,41 31.9,39.8 33,37.8 C34,36 34.1,33.9 33.1,32 L40.5,20 L42,20 C42.5,20 42.9,20 43.4,19.9 L31.3,45.1 Z" id="Path" fill="#6a4f9b"></path>
                <path d="M42,18 L41,18 L41,15 C41,14.4 40.6,14 40,14 C39.4,14 39,14.4 39,15 L39,18.7 L31.1,31.5 C30.9,31.8 30.9,32.2 31.1,32.6 C31.9,33.9 32,35.5 31.2,36.9 C30.4,38.3 29.1,39.1 27.5,39.1 L25,39.1 L22.4,39.1 C20.8,39.1 19.5,38.3 18.7,36.9 C17.9,35.5 18,33.9 18.8,32.6 C19,32.3 19,31.9 18.8,31.5 L11,18.7 L11,15 C11,14.4 10.6,14 10,14 C9.4,14 9,14.4 9,15 L9,18 L8,18 C3.9,18 0.6,14.9 0.1,11 L10.8,11 C11.5,11.6 12.4,12 13.4,12 C14.6,12 15.7,11.5 16.4,10.5 C17.1,9.6 17.4,8.4 17.1,7.2 L16.9,6.3 C18.3,5.5 20,5 21.7,5 L25,5 L28.3,5 C30,5 31.7,5.5 33.2,6.3 L33,7.2 C32.7,8.4 33,9.6 33.7,10.5 C34.4,11.4 35.5,12 36.7,12 C37.7,12 38.6,11.6 39.3,11 L50,11 C49.4,15 46.1,18 42,18 Z" id="Path" fill="#FFFFFF"></path>
                <path d="M33,18 C32.4,18 32,18.4 32,19 C32,19.6 31.6,20 31,20 C30.4,20 30,19.6 30,19 C30,18.4 29.6,18 29,18 C28.4,18 28,18.4 28,19 C28,20.7 29.3,22 31,22 C32.7,22 34,20.7 34,19 C34,18.5 33.6,18 33,18 Z" id="Path" fill="#FFFFFF"></path>
                <path d="M28.5,33 C27.7,33 27,33.7 27,34.5 C27,35.3 27.7,36 28.5,36 C29.3,36 30,35.3 30,34.5 C30,33.7 29.3,33 28.5,33 Z M28.5,35 C28.2,35 28,34.8 28,34.5 C28,34.2 28.2,34 28.5,34 C28.8,34 29,34.2 29,34.5 C29,34.8 28.8,35 28.5,35 Z" id="Shape" fill="#FFFFFF"></path>
                <path d="M27,48 C27,47.4 26.6,47 26,47 L24,47 C23.4,47 23,47.4 23,48 C23,48.6 23.4,49 24,49 L24,52 C23.4,52 23,52.4 23,53 C23,53.6 23.4,54 24,54 L26,54 C26.6,54 27,53.6 27,53 C27,52.4 26.6,52 26,52 L26,49 C26.6,49 27,48.6 27,48 Z" id="Path" fill="#FFFFFF"></path>
            </g>
            <g id="Слой_3" stroke="#000000" stroke-linecap="round" stroke-linejoin="round" stroke-width="2">
                <g id="Group">
                    <g>
                        <g>
                            <path d="M12,11 L0,11 L0,11 C0,16 4,20 9,20 L11,20 L16,28.1 L19,33 L19,33 C16.8,36.5 19.3,41 23.4,41 L26,41" id="Path"></path>
                            <path d="M26,5 L22.7,5 C20.5,5 18.5,5.6 16.8,6.8" id="Path"></path>
                            <path d="M11.6,8.7 L12.8,1 C12.9,0.4 13.4,0 14,0 L14,0 C14.6,0 15.1,0.4 15.2,0.9 L17.1,8.4 C17.5,10.2 16.2,11.9 14.3,11.9 L14.3,11.9 C12.6,12 11.3,10.4 11.6,8.7 Z" id="Path"></path>
                            <path d="M23,20 C23,21.1 22.1,22 21,22 L21,22 C19.9,22 19,21.1 19,20" id="Path"></path>
                            <circle id="Oval" cx="22.5" cy="35.5" r="1"></circle>
                            <path d="M40,11 L52,11 L52,11 C52,16 48,20 43,20 L41,20 L36.1,28 L33,33 L33,33 C35.2,36.5 32.7,41 28.6,41 L26,41" id="Path"></path>
                            <path d="M26,5 L29.3,5 C31.5,5 33.5,5.6 35.2,6.8" id="Path"></path>
                            <path d="M40.4,8.7 L39.2,1 C39.1,0.4 38.6,0 38,0 L38,0 C37.4,0 36.9,0.4 36.8,0.9 L34.9,8.4 C34.5,10.2 35.8,11.9 37.7,11.9 L37.7,11.9 C39.4,12 40.7,10.4 40.4,8.7 Z" id="Path"></path>
                            <path d="M30,20 C30,21.1 30.9,22 32,22 L32,22 C33.1,22 34,21.1 34,20" id="Path"></path>
                            <circle id="Oval" cx="29.5" cy="35.5" r="1"></circle>
                            <circle id="Oval" cx="26" cy="51" r="7"></circle>
                            <line x1="19.9" y1="47.6" x2="6.8" y2="20" id="Path"></line>
                            <line x1="32.8" y1="47.6" x2="45.9" y2="20" id="Path"></line>
                            <line x1="26" y1="50" x2="26" y2="53" id="Path"></line>
                        </g>
                        <line x1="25" y1="49" x2="27" y2="49" id="Path"></line>
                        <line x1="25" y1="54" x2="27" y2="54" id="Path"></line>
                    </g>
                    <line x1="41" y1="20" x2="41" y2="16" id="Path"></line>
                    <line x1="11" y1="20" x2="11" y2="16" id="Path"></line>
                </g>
            </g>
        </g>
    </g>
</svg>
